ML2-Assignment2-Visualization
…
df <- rbind(train, predict)

2. Exploratory Data Analysis

During this section, we will work only on the train dataset.

2.1 Quick look at the dataset

Get a look at the dataset using skimmed and str. Investigation of the characteristics of each individual variable contained within the train data set, including their data types, range of valid values, their distributions, and missing data values.

skimmed <- skim_to_wide(train)

skimmed[,c(1:3,5:6,9,10,16)]

## # A tibble: 41 x 8
##    type   variable              missing n     n_unique mean  sd    hist 
##    <chr>  <chr>                 <chr>   <chr> <chr>    <chr> <chr> <chr>
##  1 factor basin                 0       59400 9        <NA>  <NA>  <NA> 
##  2 factor date_recorded         0       59400 356      <NA>  <NA>  <NA> 
##  3 factor extraction_type       0       59400 18       <NA>  <NA>  <NA> 
##  4 factor extraction_type_class 0       59400 7        <NA>  <NA>  <NA> 
##  5 factor extraction_type_group 0       59400 13       <NA>  <NA>  <NA> 
##  6 factor funder                0       59400 1898     <NA>  <NA>  <NA> 
##  7 factor installer             0       59400 2146     <NA>  <NA>  <NA> 
##  8 factor lga                   0       59400 125      <NA>  <NA>  <NA> 
##  9 factor management            0       59400 12       <NA>  <NA>  <NA> 
## 10 factor management_group      0       59400 5        <NA>  <NA>  <NA> 
## #  with 31 more rows
…
